CSE_234-Logic_Circuits_And_Design_Laboratory/LAB_0/simulation/qsim/LAB0_210104004228.msim.vcd
$comment
	File created using the following command:
		vcd file LAB0_210104004228.msim.vcd -direction
$end
$date
	Mon Mar 13 13:47:58 2023
$end
$version
	ModelSim Version 10.5b
$end
$timescale
	1ps
$end

$scope module LAB0_210104004228_vlg_vec_tst $end
$var reg 1 ! A $end
$var reg 1 " B $end
$var reg 1 # C $end
$var wire 1 $ Q $end

$scope module i1 $end
$var wire 1 % gnd $end
$var wire 1 & vcc $end
$var wire 1 ' unknown $end
$var tri1 1 ( devclrn $end
$var tri1 1 ) devpor $end
$var tri1 1 * devoe $end
$var wire 1 + B~input_o $end
$var wire 1 , C~input_o $end
$var wire 1 - Q~output_o $end
$var wire 1 . A~input_o $end
$upscope $end
$upscope $end
$enddefinitions $end
#0
$dumpvars
0!
0"
0#
0$
0%
1&
x'
1(
1)
1*
0+
0,
0-
0.
$end
#40000
1!
1.
1-
1$
#80000
1"
0!
1+
0.
0-
0$
#120000
1!
1.
1-
1$
#160000
1#
0"
0!
1,
0+
0.
0-
0$
#200000
1!
1.
1-
1$
#240000
1"
0!
1+
0.
0-
0$
#280000
1!
1.
1-
1$
#320000
0#
0"
0!
0,
0+
0.
0-
0$
#360000
1!
1.
1-
1$
#400000
1"
0!
1+
0.
0-
0$
#440000
1!
1.
1-
1$
#480000
1#
0"
0!
1,
0+
0.
0-
0$
#520000
1!
1.
1-
1$
#560000
1"
0!
1+
0.
0-
0$
#600000
1!
1.
1-
1$
#640000
0#
0"
0!
0,
0+
0.
0-
0$
#680000
1!
1.
1-
1$
#720000
1"
0!
1+
0.
0-
0$
#760000
1!
1.
1-
1$
#800000
1#
0"
0!
1,
0+
0.
0-
0$
#840000
1!
1.
1-
1$
#880000
1"
0!
1+
0.
0-
0$
#920000
1!
1.
1-
1$
#960000
0#
0"
0!
0,
0+
0.
0-
0$
