CSE_234-Logic_Circuits_And_Design_Laboratory/LAB_3/simulation/qsim/LAB3_210104004228.msim.vcd
$comment
	File created using the following command:
		vcd file LAB3_210104004228.msim.vcd -direction
$end
$date
	Mon Apr 17 14:11:21 2023
$end
$version
	ModelSim Version 10.5b
$end
$timescale
	1ps
$end

$scope module LAB3_210104004228_vlg_vec_tst $end
$var reg 1 ! in1 $end
$var reg 1 " in2 $end
$var reg 1 # in3 $end
$var reg 1 $ in4 $end
$var reg 1 % select $end
$var wire 1 & out $end

$scope module i1 $end
$var wire 1 ' gnd $end
$var wire 1 ( vcc $end
$var wire 1 ) unknown $end
$var tri1 1 * devclrn $end
$var tri1 1 + devpor $end
$var tri1 1 , devoe $end
$var wire 1 - out~output_o $end
$var wire 1 . select~input_o $end
$var wire 1 / in1~input_o $end
$var wire 1 0 in2~input_o $end
$var wire 1 1 in3~input_o $end
$var wire 1 2 in4~input_o $end
$var wire 1 3 comb_5|cable [1] $end
$var wire 1 4 comb_5|cable [0] $end
$upscope $end
$upscope $end
$enddefinitions $end
#0
$dumpvars
0!
0"
0#
0$
0%
1&
0'
1(
x)
1*
1+
1,
1-
0.
0/
00
01
02
04
z3
$end
#10000
1!
1/
#20000
1"
0!
10
0/
#30000
1!
1/
#40000
1#
0"
0!
11
00
0/
#50000
1!
1/
#60000
1"
0!
10
0/
#70000
1!
1/
#80000
1$
0#
0"
0!
12
01
00
0/
#90000
1!
1/
#100000
1"
0!
10
0/
#110000
1!
1/
#120000
1#
0"
0!
11
00
0/
#130000
1!
1/
#140000
1"
0!
10
0/
#150000
1!
1/
14
0-
0&
#160000
1%
0$
0#
0"
0!
1.
02
01
00
0/
#170000
1!
1/
#180000
1"
0!
10
0/
#190000
1!
1/
#200000
1#
0"
0!
11
00
0/
#210000
1!
1/
#220000
1"
0!
10
0/
#230000
1!
1/
#240000
1$
0#
0"
0!
12
01
00
0/
#250000
1!
1/
#260000
1"
0!
10
0/
#270000
1!
1/
#280000
1#
0"
0!
11
00
0/
#290000
1!
1/
#300000
1"
0!
10
0/
#310000
1!
1/
#320000
0%
0$
0#
0"
0!
0.
02
01
00
0/
04
1-
1&
#330000
1!
1/
#340000
1"
0!
10
0/
#350000
1!
1/
#360000
1#
0"
0!
11
00
0/
#370000
1!
1/
#380000
1"
0!
10
0/
#390000
1!
1/
#400000
1$
0#
0"
0!
12
01
00
0/
#410000
1!
1/
#420000
1"
0!
10
0/
#430000
1!
1/
#440000
1#
0"
0!
11
00
0/
#450000
1!
1/
#460000
1"
0!
10
0/
#470000
1!
1/
14
0-
0&
#480000
1%
0$
0#
0"
0!
1.
02
01
00
0/
#490000
1!
1/
#500000
1"
0!
10
0/
#510000
1!
1/
#520000
1#
0"
0!
11
00
0/
#530000
1!
1/
#540000
1"
0!
10
0/
#550000
1!
1/
#560000
1$
0#
0"
0!
12
01
00
0/
#570000
1!
1/
#580000
1"
0!
10
0/
#590000
1!
1/
#600000
1#
0"
0!
11
00
0/
#610000
1!
1/
#620000
1"
0!
10
0/
#630000
1!
1/
#640000
0%
0$
0#
0"
0!
0.
02
01
00
0/
04
1-
1&
#650000
1!
1/
#660000
1"
0!
10
0/
#670000
1!
1/
#680000
1#
0"
0!
11
00
0/
#690000
1!
1/
#700000
1"
0!
10
0/
#710000
1!
1/
#720000
1$
0#
0"
0!
12
01
00
0/
#730000
1!
1/
#740000
1"
0!
10
0/
#750000
1!
1/
#760000
1#
0"
0!
11
00
0/
#770000
1!
1/
#780000
1"
0!
10
0/
#790000
1!
1/
14
0-
0&
#800000
1%
0$
0#
0"
0!
1.
02
01
00
0/
#810000
1!
1/
#820000
1"
0!
10
0/
#830000
1!
1/
#840000
1#
0"
0!
11
00
0/
#850000
1!
1/
#860000
1"
0!
10
0/
#870000
1!
1/
#880000
1$
0#
0"
0!
12
01
00
0/
#890000
1!
1/
#900000
1"
0!
10
0/
#910000
1!
1/
#920000
1#
0"
0!
11
00
0/
#930000
1!
1/
#940000
1"
0!
10
0/
#950000
1!
1/
#960000
0%
0$
0#
0"
0!
0.
02
01
00
0/
04
1-
1&
#970000
1!
1/
#980000
1"
0!
10
0/
#990000
1!
1/
