CSE_234-Logic_Circuits_And_Design_Laboratory/LAB_4/simulation/qsim/LAB4_210104004228.msim.vcd
$comment
	File created using the following command:
		vcd file LAB4_210104004228.msim.vcd -direction
$end
$date
	Mon May 08 11:26:19 2023
$end
$version
	ModelSim Version 10.5b
$end
$timescale
	1ps
$end

$scope module FSM_vlg_vec_tst $end
$var reg 1 ! clk $end
$var reg 1 " decrease $end
$var reg 1 # increase $end
$var wire 1 $ n0 $end
$var wire 1 % n1 $end
$var wire 1 & odd $end

$scope module i1 $end
$var wire 1 ' gnd $end
$var wire 1 ( vcc $end
$var wire 1 ) unknown $end
$var tri1 1 * devclrn $end
$var tri1 1 + devpor $end
$var tri1 1 , devoe $end
$var wire 1 - ~QUARTUS_CREATED_GND~I_combout $end
$var wire 1 . clk~input_o $end
$var wire 1 / clk~inputCLKENA0_outclk $end
$var wire 1 0 increase~input_o $end
$var wire 1 1 decrease~input_o $end
$var wire 1 2 nextstate~15_combout $end
$var wire 1 3 nextstate.S3~q $end
$var wire 1 4 state.S3~q $end
$var wire 1 5 nextstate~13_combout $end
$var wire 1 6 nextstate.S2~q $end
$var wire 1 7 state.S2~q $end
$var wire 1 8 nextstate~14_combout $end
$var wire 1 9 nextstate.S1~q $end
$var wire 1 : state.S1~q $end
$var wire 1 ; nextstate~12_combout $end
$var wire 1 < nextstate.S0~q $end
$var wire 1 = state.S0~feeder_combout $end
$var wire 1 > state.S0~q $end
$var wire 1 ? odd~0_combout $end
$var wire 1 @ odd~reg0_q $end
$var wire 1 A n0~reg0_q $end
$var wire 1 B n1~0_combout $end
$var wire 1 C n1~reg0_q $end
$upscope $end
$upscope $end
$enddefinitions $end
#0
$dumpvars
0!
0"
0#
0$
0%
0&
0'
1(
x)
1*
1+
1,
0-
0.
0/
00
01
02
03
04
05
06
07
08
09
0:
0;
0<
0=
0>
0?
0@
0A
0B
0C
$end
#10000
1!
1.
1/
#20000
1#
0!
10
0.
0/
1;
18
#30000
1!
1.
1/
1<
19
1=
#40000
0!
0.
0/
#50000
1!
1.
1/
1>
1:
08
15
1?
#60000
0#
0!
00
0.
0/
18
05
#70000
1!
1.
1/
1A
1@
1&
1$
#80000
0!
0.
0/
#90000
1!
1.
1/
#100000
0!
0.
0/
#110000
1!
1.
1/
#120000
1"
0!
11
0.
0/
0;
08
#130000
1!
1.
1/
0<
09
0=
#140000
0!
0.
0/
#150000
1!
1.
1/
0>
0:
1;
0?
12
#160000
0!
0.
0/
#170000
0"
1!
01
1.
1/
0;
02
1<
13
0A
0@
0&
0$
1=
#180000
0!
0.
0/
#190000
1!
1.
1/
1>
0<
14
03
1;
12
0=
1B
1?
#200000
1#
0!
10
0.
0/
0;
02
#210000
0#
1!
00
1.
1/
1;
12
0>
04
1C
1A
1@
1&
1$
1%
0;
02
0B
0?
#220000
0!
0.
0/
#230000
1!
1.
1/
0C
0A
0@
0&
0$
0%
#240000
0!
0.
0/
#250000
1!
1.
1/
#260000
1"
0!
11
0.
0/
1;
12
#270000
1!
1.
1/
1<
13
1=
#280000
0!
0.
0/
#290000
1!
1.
1/
1>
14
15
02
1B
1?
#300000
0!
0.
0/
#310000
1!
1.
1/
16
03
1C
1A
1@
1&
1$
1%
#320000
0"
0!
01
0.
0/
05
12
#330000
1!
1.
1/
17
06
04
13
15
02
0?
#340000
0!
0.
0/
#350000
1!
1.
1/
07
16
14
03
0A
0@
0&
0$
05
12
1?
#360000
0!
0.
0/
#370000
1!
1.
1/
17
06
04
13
1A
1@
1&
1$
15
02
0?
#380000
0!
0.
0/
#390000
1!
1.
1/
07
16
14
03
0A
0@
0&
0$
05
12
1?
#400000
0!
0.
0/
#410000
1!
1.
1/
17
06
04
13
1A
1@
1&
1$
15
02
0?
#420000
0!
0.
0/
#430000
1!
1.
1/
07
16
14
03
0A
0@
0&
0$
05
12
1?
#440000
0!
0.
0/
#450000
1!
1.
1/
17
06
04
13
1A
1@
1&
1$
15
02
0?
#460000
0!
0.
0/
#470000
1!
1.
1/
07
16
14
03
0A
0@
0&
0$
05
12
1?
#480000
0!
0.
0/
#490000
1!
1.
1/
17
06
04
13
1A
1@
1&
1$
15
02
0?
#500000
0!
0.
0/
#510000
1!
1.
1/
07
16
14
03
0A
0@
0&
0$
05
12
1?
#520000
0!
0.
0/
#530000
1!
1.
1/
17
06
04
13
1A
1@
1&
1$
15
02
0?
#540000
0!
0.
0/
#550000
1!
1.
1/
07
16
14
03
0A
0@
0&
0$
05
12
1?
#560000
0!
0.
0/
#570000
1!
1.
1/
17
06
04
13
1A
1@
1&
1$
15
02
0?
#580000
0!
0.
0/
#590000
1!
1.
1/
07
16
14
03
0A
0@
0&
0$
05
12
1?
#600000
0!
0.
0/
#610000
1!
1.
1/
17
06
04
13
1A
1@
1&
1$
15
02
0?
#620000
0!
0.
0/
#630000
1!
1.
1/
07
16
14
03
0A
0@
0&
0$
05
12
1?
#640000
0!
0.
0/
#650000
1!
1.
1/
17
06
04
13
1A
1@
1&
1$
15
02
0?
#660000
0!
0.
0/
#670000
1!
1.
1/
07
16
14
03
0A
0@
0&
0$
05
12
1?
#680000
0!
0.
0/
#690000
1!
1.
1/
17
06
04
13
1A
1@
1&
1$
15
02
0?
#700000
0!
0.
0/
#710000
1!
1.
1/
07
16
14
03
0A
0@
0&
0$
05
12
1?
#720000
0!
0.
0/
#730000
1!
1.
1/
17
06
04
13
1A
1@
1&
1$
15
02
0?
#740000
0!
0.
0/
#750000
1!
1.
1/
07
16
14
03
0A
0@
0&
0$
05
12
1?
#760000
0!
0.
0/
#770000
1!
1.
1/
17
06
04
13
1A
1@
1&
1$
15
02
0?
#780000
0!
0.
0/
#790000
1!
1.
1/
07
16
14
03
0A
0@
0&
0$
05
12
1?
#800000
0!
0.
0/
#810000
1!
1.
1/
17
06
04
13
1A
1@
1&
1$
15
02
0?
#820000
0!
0.
0/
#830000
1!
1.
1/
07
16
14
03
0A
0@
0&
0$
05
12
1?
#840000
0!
0.
0/
#850000
1!
1.
1/
17
06
04
13
1A
1@
1&
1$
15
02
0?
#860000
0!
0.
0/
#870000
1!
1.
1/
07
16
14
03
0A
0@
0&
0$
05
12
1?
#880000
0!
0.
0/
#890000
1!
1.
1/
17
06
04
13
1A
1@
1&
1$
15
02
0?
#900000
0!
0.
0/
#910000
1!
1.
1/
07
16
14
03
0A
0@
0&
0$
05
12
1?
#920000
0!
0.
0/
#930000
1!
1.
1/
17
06
04
13
1A
1@
1&
1$
15
02
0?
#940000
0!
0.
0/
#950000
1!
1.
1/
07
16
14
03
0A
0@
0&
0$
05
12
1?
#960000
0!
0.
0/
#970000
1!
1.
1/
17
06
04
13
1A
1@
1&
1$
15
02
0?
#980000
0!
0.
0/
#990000
1!
1.
1/
07
16
14
03
0A
0@
0&
0$
05
12
1?
